M48
;Layer_Color=9474304
;FILE_FORMAT=4:3
METRIC
;TYPE=PLATED
T1F00S00C0.650
T2F00S00C0.711
T3F00S00C0.900
T4F00S00C2.500
T5F00S00C3.000
T6F00S00C3.530
%
T01
X0184558Y0073038
X0186558
Y0075038
Y0077038
Y0079038
X0184558
Y0077038
Y0075038
Y0081038
X0186558
Y0083038
Y0085038
X0184558
Y0083038
Y0087038
X0186558
Y0089038
Y0091038
Y0093038
Y0095038
Y0097038
Y0099038
Y0101038
Y0103038
Y0105038
Y0107038
Y0109038
X0184558
Y0107038
Y0105038
Y0103038
Y0101038
Y0099038
Y0097038
Y0095038
Y0093038
Y0091038
Y0089038
Y0111038
Y0113038
Y0115038
X0186558
Y0113038
Y0111038
T02
X0284099Y0044602
X0307315Y0047523
X0297180Y0067500
X0271043Y0067208
X0272415Y0064389
X0271374Y0060960
X0266398Y0061028
X0264548Y0066168
X0264538Y0068288
X0265027Y0074115
X0265718Y0076078
X0263634Y0076022
X0261290Y0075590
X0258470Y0075895
X0259283Y0070978
X0254635Y0073076
X0253351Y0074551
X0253111Y0066421
X0251206Y0066243
X0245847Y0064795
X0248258Y0061658
X0246609Y0059131
X0243168Y0061028
X0241778Y0061798
X0239979Y0061334
X0243154Y0069698
X0238481Y0071831
X0240628Y0078648
X0244263Y0078816
X0248950
X0264693Y0078994
X0268978Y0076028
X0274980Y0075768
X0275361Y0062382
X0268580Y0055728
X0264658Y0055348
X0263798Y0051768
X0264005Y0048548
X0264708Y0046828
X0268580Y0050394
X0259512Y0050597
X0255727Y0048844
X0256845Y0043332
X0259512Y0056134
X0258496Y0061341
X0259867Y0064440
X0237109Y0064685
X0237007Y0062865
X0237515Y0059741
X0232461Y0069698
X0234838Y0078728
X0219761Y0077140
X0217170Y0078359
X0214935Y0077140
X0211328Y0075895
X0205892Y0077546
X0199339Y0074879
X0194678Y0072644
X0189611Y0073228
X0190488Y0079028
X0192075Y0077673
X0174018Y0078498
X0178392Y0061054
X0180915Y0085395
X0181610Y0089484
X0180924Y0093038
X0179680Y0096774
X0176581Y0096901
X0173113Y0097118
X0172218Y0104848
X0171806Y0110541
X0166599Y0112603
X0179578Y0109068
X0180848Y0107668
X0180035Y0105613
X0178927Y0102427
X0181131Y0099839
X0189636Y0101038
X0192583Y0101321
X0192989Y0098323
X0191338Y0096225
X0192202Y0094132
X0194996Y0092202
X0189745Y0091364
X0197458Y0087758
X0198095Y0097892
X0192859Y0108026
X0193497Y0110236
X0190602Y0110338
X0192608Y0113970
X0197002Y0116434
X0186896Y0116916
X0179348Y0116748
X0176988Y0087558
X0200863Y0092634
X0203199Y0091924
X0209880Y0093472
X0213258Y0094158
X0215441Y0094410
X0213055Y0091059
X0214960Y0100813
X0213868Y0108001
X0210439Y0107645
X0208973Y0104438
X0208228Y0110768
X0208268Y0113998
X0202778Y0115008
X0201898Y0111258
X0199009Y0104632
X0201143Y0102286
X0212938Y0110898
X0215461Y0112293
X0216840Y0111208
X0228727Y0105943
X0232943Y0108153
X0232689Y0114986
X0230058Y0115448
X0236449Y0113947
X0236108Y0118948
X0236144Y0100051
X0230607Y0096723
X0229387Y0093144
X0226492Y0093955
X0234188Y0092710
X0236245Y0079934
X0226873
X0226746Y0082271
X0207493Y0079832
X0241579Y0083261
X0247523Y0083388
X0245897Y0081153
X0245948Y0086568
X0248463Y0091186
X0247960Y0096910
X0244729Y0096468
X0241508Y0096798
X0239117
X0239878Y0103403
X0242619Y0103402
X0246728Y0101868
X0249068Y0101588
X0247015Y0109906
X0246405Y0113487
X0243398Y0114388
X0243508Y0117608
X0250088Y0117831
X0249777Y0115221
X0253517Y0115646
X0260680Y0114605
X0264389Y0116459
X0263322Y0117577
X0268448Y0116938
X0266078Y0112848
X0266237Y0108077
X0266370Y0106324
X0266440Y0103683
X0260909Y0104013
X0260985Y0107925
X0258293Y0106553
X0262128Y0099162
X0260978Y0097038
X0262098Y0094428
X0264185Y0093853
X0265303Y0094892
X0265735Y0097511
X0268778Y0098728
X0268351Y0094234
X0270205Y0089891
X0272821Y0091491
X0275946Y0093802
X0263246Y0089433
X0264691Y0086972
X0263568Y0085638
X0262179Y0080112
X0254291Y0093128
X0269672Y0108026
X0274193Y0118491
X0277518Y0117948
X0279218Y0118098
X0283870Y0112979
X0292151Y0115099
X0303479Y0118593
X0306426Y0118440
X0312242Y0109677
X0303225Y0104927
X0302133Y0087071
X0307315Y0083058
X0312293Y0083896
X0290108Y0096028
X0287477Y0099619
X0280778Y0095608
X0279095Y0087122
X0321894Y0087198
X0321488Y0109271
X0311252Y0119278
X0308839Y0121539
X0304952Y0122174
X0298983Y0121133
X0294970Y0120904
X0296977Y0129057
X0304114Y0130429
X0311201
X0313538Y0129845
X0311810Y0127559
X0307878Y0133848
X0306527Y0135839
X0287113Y0151003
X0279603Y0125425
X0272948Y0127406
X0269736Y0127965
X0269306Y0125123
X0265786Y0126187
X0260528Y0128499
X0260680Y0131750
X0263728Y0131978
X0262687Y0135179
X0266618Y0134368
X0268158Y0135298
X0271412Y0130086
X0253238Y0130480
X0251104Y0129591
X0247167Y0129261
X0246126Y0130785
X0247625Y0126949
X0250825Y0133960
X0242376Y0132394
X0240969Y0135610
X0238785Y0136652
X0239558Y0142548
X0246068Y0142938
X0254854Y0143114
X0264516Y0141961
X0269378Y0149248
X0259309Y0123495
Y0120752
X0261036Y0120879
X0239573Y0120752
X0236394Y0120598
X0235331Y0131750
X0236118Y0134722
X0234036Y0141859
Y0150317
X0237508Y0150118
X0226492Y0126949
X0221539Y0128222
X0214198Y0131902
X0196748Y0130708
X0188976Y0124460
X0190221Y0122326
X0191262Y0121082
X0187935Y0122022
X0176581Y0120066
X0172872Y0121107
X0167107Y0121590
T03
X0318748Y0043338
X0321288
X0323828
Y0045878
X0321288
X0318748
X0318738Y0078898
X0321278
X0323818
X0316198
X0313658
X0311118
X0308578
X0306038
X0303498
X0300958
X0298418
X0295878
X0295888Y0045878
Y0043338
X0298428
X0300968
X0303508
X0306048
X0308588
X0311128
X0313668
X0316208
Y0045878
X0313668
X0311128
X0308588
X0306048
X0303508
X0300968
X0298428
X0298418Y0081438
X0300958
X0303498
X0306038
X0308578
X0311118
X0313658
X0316198
X0295878
X0295928Y0114267
X0298468
X0301008
X0303548
X0306088
X0308628
X0311168
X0313708
X0316248
Y0116807
X0313708
X0311168
X0308628
X0306088
X0303548
X0301008
X0298468
X0295928
X0318788
Y0114267
X0321328
X0323868
Y0116807
X0321328
X0321278Y0081438
X0323818
X0318738
X0318778Y0149827
X0321318
X0323858
Y0152367
X0321318
X0318778
X0316238
Y0149827
X0313698
X0311158
X0308618
X0306078
X0303538
X0300998
X0298458
X0295918
Y0152367
X0298458
X0300998
X0303538
X0306078
X0308618
X0311158
X0313698
T04
X0289152Y0041698
Y0083078
X0289192Y0112627
X0321418Y0128577
X0289192Y0154007
T05
X0283838Y0133671
T06
X0319608Y0052538
X0166208
X0319608Y0141038
X0166208
M30
