"Bill of Material for "
"On 28-Mar-2015 at 11:36:32 AM"

"Comment","Pattern","Quantity","Components"

"0R","0603R-0R","1","R13","GENERIC JUMPER 0603"
"100K","0603","4","R74, R75, R76, R77","Semiconductor Resistor"
"100nF","0603","2","C43, C44","Capacitor"
"100nF","0603C-GENERIC","2","C5, C6","CAPACITOR 0603 CERAMIC"
"10K","0603","4","R70, R71, R72, R73","Semiconductor Resistor"
"10nF","0603C-GENERIC","2","C2, C4","CAPACITOR 0603 CERAMIC"
"15R","0603R-15","4","R1, R3, R6, R9","GENERIC RESISTOR 0603"
"1650R","0603R-TBD","2","R2, R8","RESISTOR 0603 VALUE TO BE DETERMINED"
"1uF","0603C-GENERIC","2","C1, C3","CAPACITOR 0603 CERAMIC"
"2.54mm Male Header Generic","13 Row Header","1","Header",""
"2.54mm Male header","Header 8 pins","1","Header output","2.54mm Male Header"
"3.4K","0603","2","R68, R69","Semiconductor Resistor"
"300R","0603R-TBD","2","R5, R12","RESISTOR 0603 VALUE TO BE DETERMINED"
"5R6K","0603R-TBD","1","R7","RESISTOR 0603 VALUE TO BE DETERMINED"
"8R","0603R-TBD","2","R4, R11","RESISTOR 0603 VALUE TO BE DETERMINED"
"8R2K","0603R-TBD","1","R10","RESISTOR 0603 VALUE TO BE DETERMINED"
"BSS84P","BSS84P PMOS sot-23","2","PMOS1, PMOS2",""
"HOLE","M2.5","4","H1, H2, H3, H4","Hole"
"NMOS Dual 2A3","NMOS (dual) TSOP-6","1","NMOS (dual)",""
"XTR111","XTR111","2","analogue_out1, analogue_out2",""
"ZXTP25040DFL","ZXTP25040DFL","2","PNP_1, PNP_2",""
